<?xml version="1.0" encoding="utf-8"?>
<!-- Generator: Adobe Illustrator 16.0.0, SVG Export Plug-In . SVG Version: 6.00 Build 0)  -->
<!DOCTYPE svg PUBLIC "-//W3C//DTD SVG 1.1//EN" "http://www.w3.org/Graphics/SVG/1.1/DTD/svg11.dtd">
<svg version="1.1" id="Capa_1" xmlns="http://www.w3.org/2000/svg" xmlns:xlink="http://www.w3.org/1999/xlink" x="0px" y="0px"
	 width="512px" height="398.384px" viewBox="0 0 512 398.384" enable-background="new 0 0 512 398.384" xml:space="preserve">
<g>
	<defs>
		<rect id="SVGID_1_" width="512" height="398.384"/>
	</defs>
	<clipPath id="SVGID_2_">
		<use xlink:href="#SVGID_1_"  overflow="visible"/>
	</clipPath>
	<path clip-path="url(#SVGID_2_)" fill="#133C8D" d="M346.696,187.103c3.187,1.5,6.84,1.458,9.942-0.015
		c6.199-2.941,22.36-11.248,38.514-24.821c26.176-21.996,39.92-46.762,40.907-73.668c13.607-7.928,25.292-18.655,32.155-29.765
		c2.178-3.523,1.085-8.145-2.438-10.322c-3.523-2.177-8.146-1.087-10.323,2.438c-6.958,11.263-19.62,21.075-31.69,27.276
		c-18.749-9.423-37.893-26.819-37.913-47.958c-0.016-15.628,20.768-20.923,28.395-7.504c3.755,6.6,14.258,7.542,18.965-0.042
		c7.091-11.394,21.633-9.341,26.73,0.593c1.892,3.685,6.411,5.139,10.097,3.249c3.687-1.891,5.141-6.412,3.249-10.097
		c-9.685-18.876-35.464-22.348-49.542-6.116c-19.543-22.411-61.317-6.715-51.285,32.504c-6.88,2.849-14.538,8.048-20.891,17.51
		c-15.816-24.292-50.259-28.22-71.101-7.352c-8.696,8.709-13.479,20.269-13.469,32.555
		C267.047,132.718,308.196,168.931,346.696,187.103"/>
	<path clip-path="url(#SVGID_2_)" fill="#133C8D" d="M511.227,282.998c-0.016-0.079-0.032-0.158-0.051-0.236
		c-2.584-11.117-9.239-19.108-18.726-23.272c11.013-29.811-21.838-57.763-49.676-41.238c-72.573,43.082-69.494,40.726-73.929,45.468
		l-6.509,0.453c1.621-10.002-0.769-22.603-14.812-32.166c-55.298-37.671-65.135-45.959-81.887-49.579
		c-49.131-10.721-59.262-12.562-86.995-6.922c-20.977,4.266-42.058,10.486-62.774,18.484l-2.793-6.783
		c-3.832-9.306-14.467-13.738-23.772-9.904L11.51,209.337C4.518,212.217,0,218.964,0,226.526v156.091
		c0,11.244,11.424,18.81,21.739,14.575l135.245-55.537c9.285-3.822,13.728-14.486,9.905-23.771h-0.001l-2.672-6.489l8.16-3.36
		c15.785-6.502,35.193-3.581,51.917,7.81c47.057,32.059,47.659,33.504,59.703,37.934c3.891,1.431,8.197-0.563,9.628-4.45
		c1.43-3.887-0.563-8.197-4.45-9.628c-9.063-3.334-8.54-3.622-56.437-36.253c-20.909-14.238-45.607-17.708-66.072-9.281l-8.16,3.359
		c-1.142-2.771-25.64-62.262-36.929-89.675c19.836-7.639,40.004-13.565,60.055-17.643c20.825-4.234,31.869-4.708,80.67,6.85
		c14.227,3.391,20.354,8.911,76.778,47.349c8.49,5.783,11.396,14.498,5.918,24.403c-0.625,1.128-6.421,10.869-17.415,5.44
		c-17.538-8.655-59.363-29.094-59.783-29.3c-3.725-1.817-8.215-0.274-10.031,3.447c-1.817,3.722-0.275,8.212,3.445,10.031
		c0.421,0.205,42.219,20.63,59.731,29.271c13.77,6.795,26.903,2.045,34.772-8.028c154.979-10.779,111.52-8.215,125.607-8.058
		c6.885,1.209,13.004,5.116,15.211,14.428c3.38,17.43-14.489,23.313-18.646,24.434l-154.416,31.021
		c-4.061,0.816-6.69,4.77-5.876,8.83c0.716,3.563,3.847,6.024,7.347,6.024c0.488,0,0.985-0.048,1.484-0.148
		c0.328-0.065,154.737-31.078,155.062-31.162C494.939,321.521,516.337,308.712,511.227,282.998 M151.28,327.78L16.042,383.314
		c-0.103,0.042-0.372,0.153-0.707-0.071c-0.334-0.224-0.334-0.517-0.334-0.626V226.526c0-1.46,0.872-2.763,2.222-3.317
		l77.796-32.035c0.436-0.18,0.848-0.244,1.214-0.244c0.533,0,0.97,0.135,1.241,0.249c0.459,0.191,1.294,0.671,1.734,1.741
		c24.049,58.402,30.967,75.199,53.811,130.675C153.692,325.23,152.909,327.109,151.28,327.78 M399.116,261.613l51.314-30.463
		c16.476-9.777,35.591,8.046,27.104,25.094c-3.864-0.146-7.176,0.145-10.855,0.671l-33.726,2.346L399.116,261.613z"/>
</g>
</svg>
