<?xml version="1.0" encoding="utf-8"?>
<!-- Generator: Adobe Illustrator 16.0.0, SVG Export Plug-In . SVG Version: 6.00 Build 0)  -->
<!DOCTYPE svg PUBLIC "-//W3C//DTD SVG 1.1//EN" "http://www.w3.org/Graphics/SVG/1.1/DTD/svg11.dtd">
<svg version="1.1" id="Modo_de_aislamiento" xmlns="http://www.w3.org/2000/svg" xmlns:xlink="http://www.w3.org/1999/xlink"
	 x="0px" y="0px" width="278.033px" height="278.015px" viewBox="0 0 278.033 278.015" enable-background="new 0 0 278.033 278.015"
	 xml:space="preserve">
<g>
	<circle fill="#133C8D" cx="139.007" cy="139.007" r="139.007"/>
	<g>
		<path fill="#E9EFF4" d="M71.453,255.652c-0.026,0.053-0.061,0.087-0.087,0.14c0.208,0.052,0.409,0.122,0.618,0.165L71.453,255.652
			z"/>
		<path fill="#E9EFF4" d="M62.708,59.732l-0.278-0.566c2.323-0.348,2.48-1.984,4.246-2.584c2.01-0.662,1.322,0.061,3.298,0
			c1.601-0.07,2.575,1.096,4.402,0.244c-0.443,0.783-1.166,1.322-1.888,1.853c-1.506,1.07-3.045,2.167-4.838,2.584
			C65.858,61.672,63.752,61.237,62.708,59.732z"/>
		<path fill="#E9EFF4" d="M90.517,183.634c-0.035,1.228-0.757,2.298-1.383,3.333c-2.793,4.56-4.49,9.841-4.864,15.192
			c-0.375,5.124-0.148,11.441-4.612,13.965c-2.549,1.418-6.134,1.166-7.831,3.559c-0.531,0.722-0.783,1.636-1.035,2.488
			c-1.096,3.994-2.202,7.988-3.298,11.981c-1.418-0.122-2.863-0.278-4.272-0.435c1.67,0.53,2.828,2.793,1.827,4.341
			c-1.601-0.844-3.707,0.157-4.594,1.767c-0.844,1.602-0.722,3.551-0.252,5.316c1.453,5.221,5.917,9.432,11.172,10.685
			c-0.913,1.732-3.707,0.975-5.412-0.183c-12.173-8.23-21.361-20.769-25.555-34.855c-1.479-4.969-2.428-10.25-5.325-14.522
			c-2.419-3.611-6.073-6.256-8.492-9.867c-3.394-5.186-4.029-11.911-7.961-16.653c-2.201-2.706-5.604-6.029-3.654-8.928
			c0.783-1.191,2.454-2.323,1.792-3.584c-0.217-0.409-0.661-0.662-1.009-1.01c-1.323-1.418-0.409-3.646,0.252-5.473
			c1.096-3.176,1.096-6.569,0.626-9.963c-3.306-2.958-5.917-6.63-7.552-10.754c-0.975-2.515-2.271-5.656-4.968-5.69
			c-0.696-1.949-1.418-3.898-2.115-5.847c-0.252,0.696-0.939,1.131-1.696,1.227c2.088-31.854,14.931-60.759,34.917-83.156
			c0.443-0.191,0.879-0.443,1.322-0.696c4.742-2.767,8.519-6.917,13.104-9.937c0.939-0.626,2.01-1.227,3.176-1.105
			c1.131,0.096,2.202,1.253,1.792,2.323c-0.157,0.443-0.531,0.792-0.914,1.07c-5.369,4.567-11.25,8.562-17.506,11.868
			c-0.749,0.375-1.54,0.818-1.879,1.575c-0.635,1.288,0.435,2.889,1.792,3.358c1.349,0.47,2.862,0.191,4.246-0.122
			c-1.166,1.662-1.514,3.898-0.914,5.847c1.288,0.122,1.697-1.636,2.08-2.862c1.566-4.873,9.336-6.856,8.832-11.99
			c2.106,1.097,4.246-1.357,5.534-3.367c1.288-2.045,4.15-4.055,5.725-2.262c0.087,1,0.209,2.01,0.305,3.019
			c2.767-0.696,5.568-1.418,8.335-2.114c-1.575,1.105-2.105,3.463-1.201,5.16c0.914,1.697,3.176,2.55,4.968,1.854
			c-0.026,1.479-1.349,2.61-2.55,3.489c-3.045,2.297-6.316,4.655-9.867,5.786l0.818,1.697c-0.087,0.035-0.183,0.07-0.278,0.07
			c-2.262,0.218-4.655-1.41-7.074-1.096c-1.479,0.191-3.298,0.191-4.151,1.697c-0.122,0.191-0.652,2.828-0.278,2.61
			c1.323-0.757,2.637-1.514,3.933-2.263c0.401,1.07,0.497,2.263,0.279,3.428c1.601-0.157,3.272,0.183,4.69,1.036
			c-1.479,3.428-5.282,5.725-9.023,5.438c-0.035-1.131-0.096-2.262-0.13-3.393c-3.081-0.252-5.595,2.393-7.135,5.038
			c-1.566,2.671-2.758,5.725-5.342,7.422c-1.566,1.07-3.489,1.479-5.186,2.358c-1.662,0.914-3.202,2.646-2.854,4.499
			c0.157,0.879,0.722,1.697,0.696,2.61c-0.095,1.697-2.071,2.488-3.393,3.584c-2.262,1.889-2.828,5.352-5.247,7.013
			c-1.758,1.227-4.09,1.201-6.134,1.827c-2.045,0.626-4.089,2.671-3.263,4.655c-1.009,0.348-2.236-0.409-2.332-1.479
			c-3.611,7.108-5.995,14.844-6.97,22.771c1.792,1.253,3.611-1.61,3.959-3.776c0.375-2.167,2.262-5.003,4.02-3.715
			c-0.409,3.115-0.818,6.195-1.218,9.31c-0.096,0.6-0.157,1.227,0.13,1.757c0.348,0.662,1.097,0.94,1.671,1.41
			c1.601,1.384,1.383,3.837,1.479,5.943c0.096,2.575,0.948,5.09,2.297,7.292c-0.131-0.444-0.218-0.879-0.313-1.323
			c2.454,0.313,5.003-0.479,6.856-2.114c0.975-0.878,1.792-2.01,3.019-2.454c1.262-0.47,2.645-0.13,3.933,0.218
			c3.994,1.096,8.24,2.323,10.911,5.464c1.349,1.601,2.202,3.62,3.811,4.934c3.646,3.08,9.815,1.723,13.147,5.151
			c2.671,2.767,2.175,7.231,1.453,11.033c-1.827-1-4.272,1.515-3.202,3.307c0.975-1.07,2.106-2.201,3.524-2.201
			c1.444-0.035,2.706,1.949,1.636,2.862c2.514-3.211,8.675-1.888,9.649,2.105c3.524,0.253,7.074,0.496,10.598,0.783
			C79.91,178.136,90.734,178.44,90.517,183.634z"/>
		<path fill="#E9EFF4" d="M69.086,38.162c-1.357,0.67-3.228-0.086-3.733-1.514c-0.513-1.427,0.453-3.193,1.932-3.533
			c0.931-0.217,2.227-0.113,2.514-1.027c0.087-0.278,0.035-0.583,0.035-0.87c-0.035-1.723,1.505-3.149,3.167-3.584
			c1.662-0.426,3.419-0.096,5.107,0.235c0.6,1.244,0.774,2.688,0.487,4.037c-1.157,0.052-2.314,0.096-3.472,0.148
			c0.104,1.923-0.087,4.342-1.871,5.055c-1.601,0.635-3.689-0.548-5.021,0.531"/>
		<path fill="#E9EFF4" d="M87.105,18.959c3.159-1.514,5.83-3.898,8.945-5.5c5.36-2.749,11.616-2.993,17.637-3.184
			c13.704-0.426,27.408-0.853,41.112-1.279c-3.176,1.74-6.352,3.489-9.536,5.229c-2.593,1.427-5.542,2.889-8.388,2.08
			c-0.061,2.288,2.019,4.411,4.315,4.394c-5.629,3.48-13.443-0.079-19.386,2.845c-2.488,1.227-4.499,3.541-7.239,3.976
			c-1.584,0.252-3.229-0.174-4.804,0.174c-2.636,0.574-4.298,3.071-6.247,4.933c-2.245,2.149-5.542,3.62-8.475,2.593
			c-2.933-1.027-4.464-5.386-2.114-7.422c1.157-1.001,2.81-1.166,4.176-1.871c1.366-0.696,2.445-2.567,1.418-3.707
			c-0.444-0.496-1.175-0.688-1.583-1.218c-0.444-0.574-0.4-1.392-0.766-2.019c-1.392-2.445-5.264,0.844-7.901-0.139"/>
		<path fill="#E9EFF4" d="M128.723,30.523c1.854-0.426,3.463-1.523,5.194-2.323s3.794-1.27,5.49-0.426
			c0.505,1.262-0.948,2.41-2.228,2.863c-2.454,0.861-5.116,1.096-7.683,0.67"/>
		<path fill="#E9EFF4" d="M240.765,44.349c-0.504,0.061-1.035,0.035-1.575-0.096c-2.358-0.504-4.15-2.323-6.169-3.646
			c-4.655-3.08-11.007-3.48-16.036-0.966c1.191-1.731,1.792-3.872,1.662-5.978l-0.722,0.252c-8.24-4.776-17.898-9.736-26.886-6.525
			c-2.079,0.757-3.959,1.888-6.064,2.61c-2.236,0.783-4.716,1.105-6.63,2.488c-1.949,1.384-2.984,4.438-1.314,6.1
			c1.418,1.418,3.681,1.035,5.665,1.227c1.949,0.191,4.186,2.132,3.115,3.803c-8.614,4.028-17.254,8.092-25.868,12.155
			c3.959,1.288,6.578,5.777,5.725,9.867c-2.897,0.505-5.69-1.253-8.614-1.444c-4.247-0.217-8.301,3.524-8.388,7.77
			c-0.122,4.246,3.776,8.17,8.022,8.109c3.176-0.035,6.291-1.949,9.371-1.14c0.122-2.897,2.105-5.352,4.142-7.422
			c3.959-3.967,9.615-7.552,14.905-5.603c1.731,0.626,3.211,1.792,4.655,2.949c3.176,2.515,6.352,5.056,9.536,7.605
			c1.009-1.036,2.01-2.08,3.02-3.081c1.731,1.827,3.463,3.646,5.22,5.5c0.879-0.601,1.792-1.166,2.671-1.767
			c0.626,1.636,1.288,3.237,1.923,4.873c0.252-1.792,0.47-3.55,0.688-5.316c2.08,0.061,4.281,0.122,6.16-0.818
			c1.888-0.914,3.271-3.176,2.48-5.125c-0.409-1.036-1.384-1.854-1.575-2.958c-0.409-2.202,2.732-3.707,4.777-2.706
			c2.01,0.975,3.02,3.271,3.872,5.377c0.47-2.141,0.905-4.246,1.383-6.387c1.967,5.168,4.803,10.006,8.327,14.252
			c-6.447-1.227-13.243-0.522-19.273,1.958c1.923,2.706,5.221,4.307,8.527,4.176c1.479-0.035,3.115-0.374,4.246,0.566
			c0.853,0.722,1.071,1.888,1.227,2.958c0.504,3.02,1.009,6.004,1.479,8.988c-3.402-2.793-8.3-2.48-12.738-2.567
			c-4.438-0.122-9.623-1.349-11.259-5.464c-1.758,1.984-2.541,4.812-2.036,7.457c-4.594-1.096-9.875-2.854-11.198-7.387
			c-3.585,1.322-8.048-0.966-9.023-4.646c-0.348-1.288-0.444-2.862-1.575-3.55c-0.688-0.409-1.575-0.348-2.393-0.252
			c-6.821,0.792-13.617,1.549-20.404,2.341c-3.707,0.443-7.544,0.887-10.815,2.706c-3.272,1.792-5.874,5.316-5.5,9.031
			c-6.256,3.715-11.563,9.093-15.148,15.418c-1.131,1.949-2.106,4.185-1.662,6.386c0.313,1.697,1.444,3.141,1.792,4.812
			c0.6,2.862-1.035,5.629-1.723,8.457c-1.949,8.049,4.159,15.627,9.823,21.718c2.671,2.828,5.76,5.908,9.658,6.065
			c2.418,0.096,4.716-0.975,6.978-1.862c6.474-2.549,13.521-3.715,20.465-3.437c-1.575,1.227,0.061,3.898,2.019,4.307
			c1.949,0.409,4.055-0.226,5.943,0.435c4.307,1.541,3.715,7.857,1.766,11.981c0.975-0.191,1.984-0.383,2.984-0.565
			c-0.531,1.384-1.07,2.768-1.601,4.115c5.908,0.749,8.144,8.519,6.769,14.331c-1.349,5.821-4.803,11.163-4.898,17.141
			c-0.026,3.271,0.975,6.448,1.983,9.554c2.523,7.893,5.038,15.784,7.562,23.702c7.048,0.844,11.094-8.118,17.637-10.92
			c2.454-1.07,5.342-1.288,7.265-3.115c1.854-1.758,1.253-5.882-1.131-5.882c3.237-0.348,6.004-3.306,6.1-6.578
			c0.035-0.913-0.096-1.827,0.026-2.732c0.218-1.287,1.036-2.418,1.819-3.523c4.994-7.17,8.231-15.384,11.468-23.492
			c0.844-2.176,1.697-4.308,2.541-6.482c3.202-8.084,6.378-16.132,9.58-24.215c1.252-3.176,2.515-6.317,3.768-9.502
			c-1.732,2.863-6.256,2.489-8.84,0.348c-2.61-2.132-3.968-5.377-6.012-8.048c-1.732-2.297-4.063-4.333-4.882-7.135
			c-0.47-1.601-0.383-3.333-0.661-5.003c-0.635-3.62-3.019-6.63-4.655-9.902s-2.488-7.509-0.191-10.38
			c6.613,11.538,12.625,23.414,18.063,35.587c0.601-1.888,1.984-3.524,3.742-4.438c1.288-0.696,2.732-0.975,4.089-1.54
			c3.585-1.575,6.064-5.377,6.064-9.275c-0.035-3.897-2.515-7.7-6.134-9.24c-1.792-0.757-3.837-1-5.534-2.045
			c-1.697-1-2.923-3.297-1.853-4.968c1-1.575,3.428-1.541,5.09-0.662c1.67,0.914,2.897,2.454,4.464,3.489
			c1.131,0.757,2.454,1.253,3.68,1.949c6.639,3.803,8.274,12.451,9.667,19.995c0.757,4.055,1.61,8.083,2.619,12.042
			c0.035-0.853,0.026-1.731,0.026-2.575C277.997,102.376,263.858,69.146,240.765,44.349z M253.495,90.029
			c-0.914-0.061-1.758-0.662-2.489-1.227c-1.192-0.94-2.393-2.045-2.741-3.524c-0.409-1.758,0.435-3.776-0.504-5.342
			c-0.444-0.757-1.227-1.227-1.889-1.758c-1.731-1.383-2.993-3.367-3.463-5.499c-0.409-1.888,0.183-4.403,2.106-4.716
			c0.914-0.157,1.914,0.348,2.323,1.192l-1.288,0.696c2.167,0.252,3.176,3.524,1.514,4.934c-0.218,0.217-0.504,0.409-0.504,0.722
			c0,0.191,0.122,0.374,0.287,0.504c1.349,1.479,3.368,2.01,5.125,2.95c1.758,0.914,3.489,2.61,3.21,4.559
			c-0.565,0.218-1.096,0.409-1.662,0.627c-0.6,0.6-0.122,1.67,0.504,2.262c0.627,0.592,1.445,1.192,1.479,2.071
			C255.505,89.429,254.435,90.09,253.495,90.029z"/>
		<path fill="#E9EFF4" d="M254.4,186.767l-2.271,1.609c0.792,2.785-0.792,6.048-3.48,7.136c-1.418,0.573-3.306,0.826-3.785,2.279
			c-0.4,1.235,0.557,2.488,0.688,3.776c0.209,2.141-1.792,3.741-3.237,5.334c-1.444,1.592-2.21,4.585-0.287,5.542
			c0.444,0.227,0.957,0.27,1.453,0.313c2.088,0.183,4.377,0.243,6.082-0.975c4.89-3.489,0.244-12.956,5.073-16.541
			c0.688-0.505,1.549-0.87,1.923-1.636C257.698,191.353,253.495,189.116,254.4,186.767z"/>
	</g>
</g>
</svg>
